histonePTM R package
…
It searches in all MS/MS scan for pre-defined m/z of
diagnostic ions. It reports their presence and their relative
intensities relative to the base peak.

mgf_file <- './docs/toyExample.mgf'

List_DiagIons <- c(156.102, 126.091)

tolerance = 0.001

mgf_searchDiagIon(mgf_file = mgf_file, 
                  diag_ion = List_DiagIons, 
                  tol = tolerance, 
                  save_file = FALSE)
#> # A tibble: 29 × 7
#>    file       diag_ion diag_relint prec_mz    rt  scan prec_z
#>    <chr>         <dbl>       <dbl>   <dbl> <dbl> <int>  <int>
#>  1 toyExample     126.       0.902    822.  33.7 15338      2
#>  2 toyExample     156.       1        508.  17.4  5920      2
#>  3 toyExample     156.       0.007    375.  75.5 26917      2
#>  4 toyExample     126.       0.032    375.  75.5 26917      2
#>  5 toyExample     156.       1        398.  18.6  6289      4
#>  6 toyExample     126.       0.043    398.  18.6  6289      4
#>  7 toyExample     126.       1        395.  18.1  6137      4
#>  8 toyExample     156.       0.182    404.  75.7 26987      2
#>  9 toyExample     126.       0.021    404.  75.7 26987      2
#> 10 toyExample     156.       0.003    356.  75.8 27008      2
#> # ℹ 19 more rows
2.1 mgf_extractMS2scan()

It extracts specific scan(s) as dataframes with columns: 1.
mgf: Name of the mgf file with extension. 2.
m/z: 3. intensity 4. scan

scans = c(5920, 6289)
mgf_extractMS2scan(mgf_file ='./docs/toyExample.mgf', 
                   scan= scans,  
                   save_file = FALSE, #save results as csv file
                   export_mgf = FALSE #save selected scans as mgf file
                   )
#> Reading toyExample.mgf...
#> ✔ 'toyExample.mgf' is converted into a 'Spectra' object.
#> # A tibble: 120 × 4
#>    mgf         scan    mz intensity
#>    <chr>      <int> <dbl>     <dbl>
#>  1 toyExample  5920  84.1     1714.
#>  2 toyExample  5920  92.5      897.
#>  3 toyExample  5920  94.2      841.
#>  4 toyExample  5920 120.       925.
#>  5 toyExample  5920 144.       819.
#>  6 toyExample  5920 156.      7279.
#>  7 toyExample  5920 169.       893.
#>  8 toyExample  5920 173.      1792.
#>  9 toyExample  5920 175.      1018.
#> 10 toyExample  5920 202.       815.
#> # ℹ 110 more rows
…
#> # A tibble: 37 × 3
#>    seq    a.a   relative_percent
#>    <chr>  <chr>            <dbl>
#>  1 H3_seq A                   13
#>  2 H3_seq R                   13
#>  3 H3_seq T                    7
#>  4 H3_seq K                   10
#>  5 H3_seq Q                    6
#>  6 H3_seq S                    4
#>  7 H3_seq G                    5
#>  8 H3_seq P                    4
#>  9 H3_seq L                    9
#> 10 H3_seq V                    4
#> # ℹ 27 more rows
…
unique(df_new$sequence)
#> [1] "ISGLIYEETR"     "DAVTYTEHAKR"    "DNIQGITKPAIR"   "GKGGKGLGKGGAKR"
#> [5] "KTVTAMDVVYALKR"

7.Scraping Online Data

7.1 litReview()

A quick literature review from
PubMed

litReview(start = 2023, end = 2024, term = "Tiziana Bonaldi[au]")
#> $Data
#> # A tibble: 22 × 3
#>     year id       title                                                         
#>    <int> <chr>    <chr>                                                         
#>  1  2023 38124114 A comprehensive characterisation of phaeochromocytoma and par…
#>  2  2023 38102575 Multi-omics integrative modelling for stereotactic body radio…
#>  3  2023 38028201 Unveiling the role of PUS7-mediated pseudouridylation in host…
#>  4  2023 38019906 GTF2I dosage regulates neuronal differentiation and social be…
#>  5  2023 37727062 Proteomics contributions to epigenetic drug discovery.        
#>  6  2023 37665465 Mass Spectrometry-Based Analysis of Histone Posttranslational…
#>  7  2023 37294917 Lipid nanoparticles allow efficient and harmless ex vivo gene…
#>  8  2023 37146898 Detection and quantification of the histone code in the funga…
#>  9  2023 36810679 Methylation of CENP-A/Cse4 on arginine 143 and lysine 131 reg…
#> 10  2023 36697763 A truncated and catalytically inactive isoform of KDM5B histo…
#> # ℹ 12 more rows
#> 
#> $Summary
#> 
#> 2023 2024 
#>   14    8

7.2 ptm_Uniprot()

It fetches PTMs identified by proteomics from Uniprot with the associated
metadata.

accession <- 'P84243' #Histone H3.3

ptm_Uniprot(Uniprot_accession = accession)
#> # A tibble: 38 × 25
#>    type           begin end   xrefs_name xrefs_id    xrefs_url    evidences_code
#>    <chr>          <chr> <chr> <chr>      <chr>       <chr>        <chr>         
#>  1 PROTEOMICS_PTM 52    60    Proteomes  UP000005640 https://www… ECO:0007829   
#>  2 PROTEOMICS_PTM 28    41    Proteomes  UP000005640 https://www… ECO:0007829   
#>  3 PROTEOMICS_PTM 75    82    Proteomes  UP000005640 https://www… ECO:0007829   
#>  4 PROTEOMICS_PTM 16    24    Proteomes  UP000005640 https://www… ECO:0007829   
#>  5 PROTEOMICS_PTM 55    64    Proteomes  UP000005640 https://www… ECO:0007829   
#>  6 PROTEOMICS_PTM 55    64    Proteomes  UP000005640 https://www… ECO:0007829   
#>  7 PROTEOMICS_PTM 55    64    Proteomes  UP000005640 https://www… ECO:0007829   
#>  8 PROTEOMICS_PTM 55    64    Proteomes  UP000005640 https://www… ECO:0007829   
#>  9 PROTEOMICS_PTM 55    64    Proteomes  UP000005640 https://www… ECO:0007829   
#> 10 PROTEOMICS_PTM 55    64    Proteomes  UP000005640 https://www… ECO:0007829   
#> # ℹ 28 more rows
#> # ℹ 18 more variables: evidences_source_id <chr>, evidences_source_url <chr>,
#> #   peptide <chr>, unique <lgl>, name <chr>, position <int>, sources <chr>,
#> #   dbReferences_id <chr>, `dbReferences_properties_Pubmed ID` <chr>,
#> #   `dbReferences_properties_Confidence score` <chr>,
#> #   `dbReferences_properties_Site q value` <chr>,
#> #   `dbReferences_properties_Sumo isoforms` <chr>, …
