Hassan M. Hijazi - histonePTM R package
…
2.1 mgf_searchDiagIon()

It searches in all MS/MS scan for pre-defined m/z of diagnostic ions. It reports their presence and their relative intensities relative to the base peak.

mgf_file <- 'toyExample.mgf'

List_DiagIons <- c(156.102, 126.091)

tolerance = 0.001

mgf_searchDiagIon(mgf_file = mgf_file, 
                  diag_ion = List_DiagIons, 
                  tol = tolerance, 
                  save_file = FALSE)
#> # A tibble: 29 × 7
#>    file       diag_ion diag_relint  scan prec_mz prec_z    rt
#>    <chr>         <dbl>       <dbl> <int>   <dbl>  <int> <dbl>
#>  1 toyExample     126.       0.902 15338    822.      2  33.7
#>  2 toyExample     156.       1      5920    508.      2  17.4
#>  3 toyExample     156.       0.007 26917    375.      2  75.5
#>  4 toyExample     126.       0.032 26917    375.      2  75.5
#>  5 toyExample     156.       1      6289    398.      4  18.6
#>  6 toyExample     126.       0.043  6289    398.      4  18.6
#>  7 toyExample     126.       1      6137    395.      4  18.1
#>  8 toyExample     156.       0.182 26987    404.      2  75.7
#>  9 toyExample     126.       0.021 26987    404.      2  75.7
#> 10 toyExample     156.       0.003 27008    356.      2  75.8
#> # ℹ 19 more rows

2.1 mgf_extractMS2scan()

It extracts specific scan(s) as dataframes with columns: 1. mgf: Name of the mgf file with extension. 2. m/z: 3. intensity 4. scan

scans = c(5920, 6289)
mgf_extractMS2scan(mgf_file ='toyExample.mgf', 
                   scan= scans,  
                   save_file = FALSE, #save results as csv file
                   export_mgf = FALSE #save selected scans as mgf file
                   )
#> Start data import from 1 files ... done
#> ✔ The file toyExample.mgf is converted into a 'Spectra' object.
#> # A tibble: 120 × 4
#>    mgf             scan    mz intensity
#>    <chr>          <int> <dbl>     <dbl>
#>  1 toyExample.mgf  5920  84.1     1714.
#>  2 toyExample.mgf  5920  92.5      897.
#>  3 toyExample.mgf  5920  94.2      841.
#>  4 toyExample.mgf  5920 120.       925.
#>  5 toyExample.mgf  5920 144.       819.
#>  6 toyExample.mgf  5920 156.      7279.
#>  7 toyExample.mgf  5920 169.       893.
#>  8 toyExample.mgf  5920 173.      1792.
#>  9 toyExample.mgf  5920 175.      1018.
#> 10 toyExample.mgf  5920 202.       815.
#> # ℹ 110 more rows
…
#> # A tibble: 37 × 3
#>    seq    a.a   relative_percent
#>    <chr>  <chr>            <dbl>
#>  1 H3_seq A                   13
#>  2 H3_seq R                   13
#>  3 H3_seq T                    7
#>  4 H3_seq K                   10
#>  5 H3_seq Q                    6
#>  6 H3_seq S                    4
#>  7 H3_seq G                    5
#>  8 H3_seq P                    4
#>  9 H3_seq L                    9
#> 10 H3_seq V                    4
#> # ℹ 27 more rows
…
df_new <- seq_getHistPeptide(df = df_H3, seq_col = sequence, histoneProtein = "H4")

unique(df_new$sequence)
#> [1] "ISGLIYEETR"     "DAVTYTEHAKR"    "DNIQGITKPAIR"   "GKGGKGLGKGGAKR"
#> [5] "KTVTAMDVVYALKR"

7.Scraping Online Data

7.1 litReview()

A quick literature review from PubMed

litReview(start = 2023, end = 2024, term = "Tiziana Bonaldi[au]")
#> [[1]]
#> # A tibble: 21 × 3
#>     year id       title                                                         
#>    <int> <chr>    <chr>                                                         
#>  1  2023 38124114 A comprehensive characterisation of phaeochromocytoma and par…
#>  2  2023 38102575 Multi-omics integrative modelling for stereotactic body radio…
#>  3  2023 38028201 Unveiling the role of PUS7-mediated pseudouridylation in host…
#>  4  2023 38019906 GTF2I dosage regulates neuronal differentiation and social be…
#>  5  2023 37727062 Proteomics contributions to epigenetic drug discovery.        
#>  6  2023 37665465 Mass Spectrometry-Based Analysis of Histone Posttranslational…
#>  7  2023 37294917 Lipid nanoparticles allow efficient and harmless ex vivo gene…
#>  8  2023 37146898 Detection and quantification of the histone code in the funga…
#>  9  2023 36810679 Methylation of CENP-A/Cse4 on arginine 143 and lysine 131 reg…
#> 10  2023 36697763 A truncated and catalytically inactive isoform of KDM5B histo…
#> # ℹ 11 more rows
…
7.2 ptm_Uniprot()

It gets PTMs identified by proteomics from Uniprot

accession <- 'P42858' #HTT protein

df <- ptm_Uniprot(Uniprot_accession = accession)

columns_to_show <- c('name', 'type','position', 'peptide', 'PEP', 'sources')

df |> dplyr::select(all_of(columns_to_show))
#> # A tibble: 24 × 6
#>    name            type           position peptide                 PEP   sources
#>    <chr>           <chr>             <int> <chr>                   <chr> <chr>  
#>  1 Phosphorylation PROTEOMICS_PTM        4 HSLSSTK                 4.59… PRIDE  
#>  2 Phosphorylation PROTEOMICS_PTM       15 DEISGELAASSGVSTPGSAGHD… 1.41… PRIDE  
#>  3 Phosphorylation PROTEOMICS_PTM        3 AISEEEEEVDPNTQNPK       8.97… PRIDE  
#>  4 Phosphorylation PROTEOMICS_PTM       12 NMSHCRQPSDSSVDK         0.00… PRIDE  
#>  5 Phosphorylation PROTEOMICS_PTM        1 SRSGSIVELIAGGGSSCSPVLS… 1.32… PRIDE  
#>  6 Phosphorylation PROTEOMICS_PTM       26 TPPPELLQTLTAVGGIGQLTAA… 1.39… PRIDE  
#>  7 Phosphorylation PROTEOMICS_PTM        9 EKEPGEQASVPLSPKK        2.97… PRIDE  
#>  8 Phosphorylation PROTEOMICS_PTM        4 EKVSPGRTSDPNPAAPDSESVI… 1.98… PRIDE  
#>  9 Phosphorylation PROTEOMICS_PTM        3 LLSPQMSGEEEDSDLAAK      1.60… PRIDE  
#> 10 Phosphorylation PROTEOMICS_PTM        7 LLSPQMSGEEEDSDLAAK      1.60… PRIDE  
#> # ℹ 14 more rows
